{
    "autoRefresh": false,
    "browser": "Google Chrome Canary",
    "pollTimeout": 1200,
    "debugOnly": true,
    "debugFilter": "USER_DEBUG|FATAL_ERROR",
    "apiVersion": "38.0",
    "deployOptions": {
        "checkOnly": false,
        "testLevel": "runLocalTests",
        "verbose": false,
        "ignoreWarnings": true
    },
    "username": "eduardoccc96@playful-moose-455785.com",
    "password": "m1cumpl3J0xu1x4HxZDtRLtCr686t4q9f",
    "url": "https://login.salesforce.com",
    "autoCompile": true
}